[
  {
    "login": "Igor",
    "password": "321123"
  },
  {
    "login": "admin",
    "password": "admin"
  },
  {
    "login": "user",
    "password": "123"
  },
  {
    "login": "User",
    "password": "qwerty"
  }
]